{
    "fluentMethods": true,
    "clientRootFolder": "",
    "relationships": [],
    "fields": [],
    "changelogDate": "20190330165017",
    "dto": "no",
    "searchEngine": false,
    "service": "no",
    "entityTableName": "assessment",
    "databaseType": "sql",
    "jpaMetamodelFiltering": false,
    "pagination": "no"
}
